<svg id="Слой_1" data-name="Слой 1" xmlns="http://www.w3.org/2000/svg" viewBox="0 0 40 40">
  <defs>
    <style>.cls-1{fill:none;stroke:#414042;stroke-linecap:round;stroke-linejoin:round;}</style>
  </defs>
  <rect class="cls-1" x="15.73" y="8.51" width="8.55" height="2" rx="0.69" />
  <line class="cls-1" x1="15.34" y1="12.5" x2="24.66" y2="12.5" />
  <path class="cls-1" d="M23.5,10.51v3.68A7,7,0,0,1,26.61,20V36a1.56,1.56,0,0,1-1.56,1.55H15.5a2.11,2.11,0,0,1-2.11-2.1V20a6.93,6.93,0,0,1,3.11-5.82V10.9" />
  <line class="cls-1" x1="16.11" y1="17.51" x2="23.89" y2="17.51" />
  <path class="cls-1" d="M24.61,23V34.85a.75.75,0,0,1-.75.75H16.14a.76.76,0,0,1-.75-.75V29" />
</svg>
